{
  "exclude": ["./isolation/**/*.js", "./isolation/**/*.ts"],
  "extends": ["tslint:recommended", "tslint-config-prettier"],
  "rules": {
    "class-name": true,
    "comment-format": [true, "check-space"],
    "curly": true,
    "forin": true,
    "interface-name": [true, "never-prefix"],
    "jsdoc-format": true,
    "label-position": true,
    "member-ordering": [true],
    "no-any": true,
    "no-arg": true,
    "no-bitwise": true,
    "no-console": [
      true,
      "log",
      "error",
      "debug",
      "info",
      "time",
      "timeEnd",
      "trace"
    ],
    "no-construct": true,
    "no-debugger": true,
    "no-duplicate-variable": true,
    "no-empty": true,
    "no-eval": true,
    "no-shadowed-variable": true,
    "no-string-literal": true,
    "no-switch-case-fall-through": true,
    "no-trailing-whitespace": false,
    "no-unused-expression": true,
    "no-use-before-declare": true,
    "object-literal-sort-keys": false,
    "radix": true,
    "switch-default": true,
    "triple-equals": [true, "allow-null-check"],
    "typedef": [true, "parameter", "property-declaration"],
    "variable-name": [
      true,
      "ban-keywords",
      "check-format",
      "allow-leading-underscore",
      "allow-pascal-case"
    ]
  }
}
